[
    {
        "slug": "amico-araz-singledifferential",
        "cardetails": [
            {
                "title": "آمیکو آراز وانت آمیکو آراز تک دیفرانسیل",
                "filter": {
                    "query": "آمیکو آراز وانت آمیکو آراز تک دیفرانسیل",
                    "brand_model": {
                        "value": [
                            "Amico Araz singledifferential"
                        ]
                    },
                    "category": {
                        "value": "light"
                    }
                },
                "filters": {
                    "query": "آمیکو آراز وانت آمیکو آراز تک دیفرانسیل",
                    "brand_model": {
                        "value": [
                            "Amico Araz singledifferential"
                        ]
                    },
                    "category": {
                        "value": "light"
                    }
                }
            }
        ],
        "mechanic": [
            {
                "title": "وانت آمیکو آراز تک دیفرانسیل",
                "filters": {
                    "query": "وانت آمیکو آراز تک دیفرانسیل",
                    "brand_model": {
                        "value": [
                            "Amico Araz singledifferential"
                        ]
                    },
                    "category": {
                        "value": "light"
                    }
                },
                "filter": {
                    "query": "وانت آمیکو آراز تک دیفرانسیل",
                    "brand_model": {
                        "value": [
                            "Amico Araz singledifferential"
                        ]
                    },
                    "category": {
                        "value": "light"
                    }
                }
            }
        ]
    },
    {
        "slug": "amico-araz-doubledifferential",
        "cardetails": [
            {
                "title": "آمیکو آراز وانت آمیکو آراز دو دیفرانسیل",
                "filter": {
                    "query": "آمیکو آراز وانت آمیکو آراز دو دیفرانسیل",
                    "brand_model": {
                        "value": [
                            "Amico Araz doubledifferential"
                        ]
                    },
                    "category": {
                        "value": "light"
                    }
                },
                "filters": {
                    "query": "آمیکو آراز وانت آمیکو آراز دو دیفرانسیل",
                    "brand_model": {
                        "value": [
                            "Amico Araz doubledifferential"
                        ]
                    },
                    "category": {
                        "value": "light"
                    }
                }
            }
        ],
        "mechanic": [
            {
                "title": "وانت آمیکو آراز دو دیفرانسیل",
                "filters": {
                    "query": "وانت آمیکو آراز دو دیفرانسیل",
                    "brand_model": {
                        "value": [
                            "Amico Araz doubledifferential"
                        ]
                    },
                    "category": {
                        "value": "light"
                    }
                },
                "filter": {
                    "query": "وانت آمیکو آراز دو دیفرانسیل",
                    "brand_model": {
                        "value": [
                            "Amico Araz doubledifferential"
                        ]
                    },
                    "category": {
                        "value": "light"
                    }
                }
            }
        ]
    },
    {
        "slug": "foton-pickup",
        "cardetails": [
            {
                "title": "فوتون وانت فوتون",
                "filter": {
                    "query": "فوتون وانت فوتون",
                    "brand_model": {
                        "value": [
                            "Foton Pickup"
                        ]
                    },
                    "category": {
                        "value": "light"
                    }
                },
                "filters": {
                    "query": "فوتون وانت فوتون",
                    "brand_model": {
                        "value": [
                            "Foton Pickup"
                        ]
                    },
                    "category": {
                        "value": "light"
                    }
                }
            }
        ],
        "mechanic": [
            {
                "title": "وانت فوتون",
                "filters": {
                    "query": "وانت فوتون",
                    "brand_model": {
                        "value": [
                            "Foton Pickup"
                        ]
                    },
                    "category": {
                        "value": "light"
                    }
                },
                "filter": {
                    "query": "وانت فوتون",
                    "brand_model": {
                        "value": [
                            "Foton Pickup"
                        ]
                    },
                    "category": {
                        "value": "light"
                    }
                }
            }
        ]
    },
    {
        "slug": "mazda-pickup-injector-2000-single-cabin-petrol",
        "cardetails": [
            {
                "title": "مزدا وانت مزدا 2000 تک کابین بنزینی",
                "filter": {
                    "query": "مزدا وانت مزدا 2000 تک کابین بنزینی",
                    "brand_model": {
                        "value": [
                            "Mazda Pickup injector 2000-single cabin petrol"
                        ]
                    },
                    "category": {
                        "value": "light"
                    }
                },
                "filters": {
                    "query": "مزدا وانت مزدا 2000 تک کابین بنزینی",
                    "brand_model": {
                        "value": [
                            "Mazda Pickup injector 2000-single cabin petrol"
                        ]
                    },
                    "category": {
                        "value": "light"
                    }
                }
            }
        ],
        "mechanic": [
            {
                "title": "وانت مزدا 2000 تک کابین بنزینی",
                "filters": {
                    "query": "وانت مزدا 2000 تک کابین بنزینی",
                    "brand_model": {
                        "value": [
                            "Mazda Pickup injector 2000-single cabin petrol"
                        ]
                    },
                    "category": {
                        "value": "light"
                    }
                },
                "filter": {
                    "query": "وانت مزدا 2000 تک کابین بنزینی",
                    "brand_model": {
                        "value": [
                            "Mazda Pickup injector 2000-single cabin petrol"
                        ]
                    },
                    "category": {
                        "value": "light"
                    }
                }
            }
        ]
    },
    {
        "slug": "nissan-pickup-double-cabin-petrol",
        "cardetails": [
            {
                "title": "نیسان وانت نیسان نیسان پیکاپ‌ دو کابین بنزینی",
                "filter": {
                    "query": "نیسان وانت نیسان نیسان پیکاپ‌ دو کابین بنزینی",
                    "brand_model": {
                        "value": [
                            "Nissan Pickup double-cabin petrol"
                        ]
                    },
                    "category": {
                        "value": "light"
                    }
                },
                "filters": {
                    "query": "نیسان وانت نیسان نیسان پیکاپ‌ دو کابین بنزینی",
                    "brand_model": {
                        "value": [
                            "Nissan Pickup double-cabin petrol"
                        ]
                    },
                    "category": {
                        "value": "light"
                    }
                }
            }
        ],
        "mechanic": [
            {
                "title": "نیسان پیکاپ‌ دو کابین بنزینی",
                "filters": {
                    "query": "نیسان پیکاپ‌ دو کابین بنزینی",
                    "brand_model": {
                        "value": [
                            "Nissan Pickup double-cabin petrol"
                        ]
                    },
                    "category": {
                        "value": "light"
                    }
                },
                "filter": {
                    "query": "نیسان پیکاپ‌ دو کابین بنزینی",
                    "brand_model": {
                        "value": [
                            "Nissan Pickup double-cabin petrol"
                        ]
                    },
                    "category": {
                        "value": "light"
                    }
                }
            }
        ]
    },
    {
        "slug": "amico-asna-bi-fuel",
        "cardetails": [
            {
                "title": "آمیکو آسنا وانت آمیکو آسنا دوگانه‌ سوز",
                "filter": {
                    "query": "آمیکو آسنا وانت آمیکو آسنا دوگانه‌ سوز",
                    "brand_model": {
                        "value": [
                            "Amico Asna Bi-fuel"
                        ]
                    },
                    "category": {
                        "value": "light"
                    }
                },
                "filters": {
                    "query": "آمیکو آسنا وانت آمیکو آسنا دوگانه‌ سوز",
                    "brand_model": {
                        "value": [
                            "Amico Asna Bi-fuel"
                        ]
                    },
                    "category": {
                        "value": "light"
                    }
                }
            }
        ],
        "mechanic": [
            {
                "title": "وانت آمیکو آسنا دوگانه‌ سوز",
                "filters": {
                    "query": "وانت آمیکو آسنا دوگانه‌ سوز",
                    "brand_model": {
                        "value": [
                            "Amico Asna Bi-fuel"
                        ]
                    },
                    "category": {
                        "value": "light"
                    }
                },
                "filter": {
                    "query": "وانت آمیکو آسنا دوگانه‌ سوز",
                    "brand_model": {
                        "value": [
                            "Amico Asna Bi-fuel"
                        ]
                    },
                    "category": {
                        "value": "light"
                    }
                }
            }
        ]
    },
    {
        "slug": "pride-pickup-151-se",
        "cardetails": [
            {
                "title": "پراید وانت پراید 151 SE",
                "filter": {
                    "query": "پراید وانت پراید 151 SE",
                    "brand_model": {
                        "value": [
                            "Pride Pickup 151 SE"
                        ]
                    },
                    "category": {
                        "value": "light"
                    }
                },
                "filters": {
                    "query": "پراید وانت پراید 151 SE",
                    "brand_model": {
                        "value": [
                            "Pride Pickup 151 SE"
                        ]
                    },
                    "category": {
                        "value": "light"
                    }
                }
            }
        ],
        "mechanic": [
            {
                "title": "وانت پراید 151 SE",
                "filters": {
                    "query": "وانت پراید 151 SE",
                    "brand_model": {
                        "value": [
                            "Pride Pickup 151 SE"
                        ]
                    },
                    "category": {
                        "value": "light"
                    }
                },
                "filter": {
                    "query": "وانت پراید 151 SE",
                    "brand_model": {
                        "value": [
                            "Pride Pickup 151 SE"
                        ]
                    },
                    "category": {
                        "value": "light"
                    }
                }
            }
        ]
    },
    {
        "slug": "pride-pickup",
        "cardetails": [
            {
                "title": "پراید وانت پراید 151",
                "filter": {
                    "query": "پراید وانت پراید 151",
                    "brand_model": {
                        "value": [
                            "Pride Pickup"
                        ]
                    },
                    "category": {
                        "value": "light"
                    }
                },
                "filters": {
                    "query": "پراید وانت پراید 151",
                    "brand_model": {
                        "value": [
                            "Pride Pickup"
                        ]
                    },
                    "category": {
                        "value": "light"
                    }
                }
            }
        ],
        "mechanic": [
            {
                "title": "وانت پراید 151",
                "filters": {
                    "query": "وانت پراید 151",
                    "brand_model": {
                        "value": [
                            "Pride Pickup"
                        ]
                    },
                    "category": {
                        "value": "light"
                    }
                },
                "filter": {
                    "query": "وانت پراید 151",
                    "brand_model": {
                        "value": [
                            "Pride Pickup"
                        ]
                    },
                    "category": {
                        "value": "light"
                    }
                }
            }
        ]
    },
    {
        "slug": "deer-deer",
        "cardetails": [
            {
                "title": "دییر وانت دییر",
                "filter": {
                    "query": "دییر وانت دییر",
                    "brand_model": {
                        "value": [
                            "Deer Deer"
                        ]
                    },
                    "category": {
                        "value": "light"
                    }
                },
                "filters": {
                    "query": "دییر وانت دییر",
                    "brand_model": {
                        "value": [
                            "Deer Deer"
                        ]
                    },
                    "category": {
                        "value": "light"
                    }
                }
            }
        ],
        "mechanic": [
            {
                "title": "وانت دییر",
                "filters": {
                    "query": "وانت دییر",
                    "brand_model": {
                        "value": [
                            "Deer Deer"
                        ]
                    },
                    "category": {
                        "value": "light"
                    }
                },
                "filter": {
                    "query": "وانت دییر",
                    "brand_model": {
                        "value": [
                            "Deer Deer"
                        ]
                    },
                    "category": {
                        "value": "light"
                    }
                }
            }
        ]
    },
    {
        "slug": "amico-asna-petrol",
        "cardetails": [
            {
                "title": "آمیکو آسنا وانت آمیکو آسنا بنزینی",
                "filter": {
                    "query": "آمیکو آسنا وانت آمیکو آسنا بنزینی",
                    "brand_model": {
                        "value": [
                            "Amico Asna petrol"
                        ]
                    },
                    "category": {
                        "value": "light"
                    }
                },
                "filters": {
                    "query": "آمیکو آسنا وانت آمیکو آسنا بنزینی",
                    "brand_model": {
                        "value": [
                            "Amico Asna petrol"
                        ]
                    },
                    "category": {
                        "value": "light"
                    }
                }
            }
        ],
        "mechanic": [
            {
                "title": "وانت آمیکو آسنا بنزینی",
                "filters": {
                    "query": "وانت آمیکو آسنا بنزینی",
                    "brand_model": {
                        "value": [
                            "Amico Asna petrol"
                        ]
                    },
                    "category": {
                        "value": "light"
                    }
                },
                "filter": {
                    "query": "وانت آمیکو آسنا بنزینی",
                    "brand_model": {
                        "value": [
                            "Amico Asna petrol"
                        ]
                    },
                    "category": {
                        "value": "light"
                    }
                }
            }
        ]
    },
    {
        "slug": "chevrolet-van-vandura",
        "cardetails": [
            {
                "title": "شورولت ون شورلت وندورا",
                "filter": {
                    "query": "شورولت ون شورلت وندورا",
                    "brand_model": {
                        "value": [
                            "Chevrolet Van Vandura"
                        ]
                    },
                    "category": {
                        "value": "light"
                    }
                },
                "filters": {
                    "query": "شورولت ون شورلت وندورا",
                    "brand_model": {
                        "value": [
                            "Chevrolet Van Vandura"
                        ]
                    },
                    "category": {
                        "value": "light"
                    }
                }
            }
        ],
        "mechanic": [
            {
                "title": "ون شورلت وندورا",
                "filters": {
                    "query": "ون شورلت وندورا",
                    "brand_model": {
                        "value": [
                            "Chevrolet Van Vandura"
                        ]
                    },
                    "category": {
                        "value": "light"
                    }
                },
                "filter": {
                    "query": "ون شورلت وندورا",
                    "brand_model": {
                        "value": [
                            "Chevrolet Van Vandura"
                        ]
                    },
                    "category": {
                        "value": "light"
                    }
                }
            }
        ]
    },
    {
        "slug": "pride-pickup-151-sl",
        "cardetails": [
            {
                "title": "پراید وانت پراید 151 SL",
                "filter": {
                    "query": "پراید وانت پراید 151 SL",
                    "brand_model": {
                        "value": [
                            "Pride Pickup 151 SL"
                        ]
                    },
                    "category": {
                        "value": "light"
                    }
                },
                "filters": {
                    "query": "پراید وانت پراید 151 SL",
                    "brand_model": {
                        "value": [
                            "Pride Pickup 151 SL"
                        ]
                    },
                    "category": {
                        "value": "light"
                    }
                }
            }
        ],
        "mechanic": [
            {
                "title": "وانت پراید 151 SL",
                "filters": {
                    "query": "وانت پراید 151 SL",
                    "brand_model": {
                        "value": [
                            "Pride Pickup 151 SL"
                        ]
                    },
                    "category": {
                        "value": "light"
                    }
                },
                "filter": {
                    "query": "وانت پراید 151 SL",
                    "brand_model": {
                        "value": [
                            "Pride Pickup 151 SL"
                        ]
                    },
                    "category": {
                        "value": "light"
                    }
                }
            }
        ]
    },
    {
        "slug": "iveco-van",
        "cardetails": [
            {
                "title": "ایویکو ون ایویکو",
                "filter": {
                    "query": "ایویکو ون ایویکو",
                    "brand_model": {
                        "value": [
                            "Iveco Van"
                        ]
                    },
                    "category": {
                        "value": "light"
                    }
                },
                "filters": {
                    "query": "ایویکو ون ایویکو",
                    "brand_model": {
                        "value": [
                            "Iveco Van"
                        ]
                    },
                    "category": {
                        "value": "light"
                    }
                }
            }
        ],
        "mechanic": [
            {
                "title": "ون ایویکو",
                "filters": {
                    "query": "ون ایویکو",
                    "brand_model": {
                        "value": [
                            "Iveco Van"
                        ]
                    },
                    "category": {
                        "value": "light"
                    }
                },
                "filter": {
                    "query": "ون ایویکو",
                    "brand_model": {
                        "value": [
                            "Iveco Van"
                        ]
                    },
                    "category": {
                        "value": "light"
                    }
                }
            }
        ]
    },
    {
        "slug": "brilliance-van-h2l",
        "cardetails": [
            {
                "title": "برلیانس ون برلیانس H2L",
                "filter": {
                    "query": "برلیانس ون برلیانس H2L",
                    "brand_model": {
                        "value": [
                            "Brilliance Van H2L"
                        ]
                    },
                    "category": {
                        "value": "light"
                    }
                },
                "filters": {
                    "query": "برلیانس ون برلیانس H2L",
                    "brand_model": {
                        "value": [
                            "Brilliance Van H2L"
                        ]
                    },
                    "category": {
                        "value": "light"
                    }
                }
            }
        ],
        "mechanic": [
            {
                "title": "ون برلیانس H2L",
                "filters": {
                    "query": "ون برلیانس H2L",
                    "brand_model": {
                        "value": [
                            "Brilliance Van H2L"
                        ]
                    },
                    "category": {
                        "value": "light"
                    }
                },
                "filter": {
                    "query": "ون برلیانس H2L",
                    "brand_model": {
                        "value": [
                            "Brilliance Van H2L"
                        ]
                    },
                    "category": {
                        "value": "light"
                    }
                }
            }
        ]
    },
    {
        "slug": "chevrolet-pickup",
        "cardetails": [
            {
                "title": "شورولت وانت شورلت",
                "filter": {
                    "query": "شورولت وانت شورلت",
                    "brand_model": {
                        "value": [
                            "Chevrolet Pickup"
                        ]
                    },
                    "category": {
                        "value": "light"
                    }
                },
                "filters": {
                    "query": "شورولت وانت شورلت",
                    "brand_model": {
                        "value": [
                            "Chevrolet Pickup"
                        ]
                    },
                    "category": {
                        "value": "light"
                    }
                }
            }
        ],
        "mechanic": [
            {
                "title": "وانت شورلت",
                "filters": {
                    "query": "وانت شورلت",
                    "brand_model": {
                        "value": [
                            "Chevrolet Pickup"
                        ]
                    },
                    "category": {
                        "value": "light"
                    }
                },
                "filter": {
                    "query": "وانت شورلت",
                    "brand_model": {
                        "value": [
                            "Chevrolet Pickup"
                        ]
                    },
                    "category": {
                        "value": "light"
                    }
                }
            }
        ]
    },
    {
        "slug": "mazda-pickup-1000",
        "cardetails": [
            {
                "title": "مزدا وانت مزدا 1000",
                "filter": {
                    "query": "مزدا وانت مزدا 1000",
                    "brand_model": {
                        "value": [
                            "Mazda Pickup 1000"
                        ]
                    },
                    "category": {
                        "value": "light"
                    }
                },
                "filters": {
                    "query": "مزدا وانت مزدا 1000",
                    "brand_model": {
                        "value": [
                            "Mazda Pickup 1000"
                        ]
                    },
                    "category": {
                        "value": "light"
                    }
                }
            }
        ],
        "mechanic": [
            {
                "title": "وانت مزدا 1000",
                "filters": {
                    "query": "وانت مزدا 1000",
                    "brand_model": {
                        "value": [
                            "Mazda Pickup 1000"
                        ]
                    },
                    "category": {
                        "value": "light"
                    }
                },
                "filter": {
                    "query": "وانت مزدا 1000",
                    "brand_model": {
                        "value": [
                            "Mazda Pickup 1000"
                        ]
                    },
                    "category": {
                        "value": "light"
                    }
                }
            }
        ]
    },
    {
        "slug": "toyota-van",
        "cardetails": [
            {
                "title": "تویوتا ون تویوتا",
                "filter": {
                    "query": "تویوتا ون تویوتا",
                    "brand_model": {
                        "value": [
                            "Toyota Van"
                        ]
                    },
                    "category": {
                        "value": "light"
                    }
                },
                "filters": {
                    "query": "تویوتا ون تویوتا",
                    "brand_model": {
                        "value": [
                            "Toyota Van"
                        ]
                    },
                    "category": {
                        "value": "light"
                    }
                }
            }
        ],
        "mechanic": [
            {
                "title": "ون تویوتا",
                "filters": {
                    "query": "ون تویوتا",
                    "brand_model": {
                        "value": [
                            "Toyota Van"
                        ]
                    },
                    "category": {
                        "value": "light"
                    }
                },
                "filter": {
                    "query": "ون تویوتا",
                    "brand_model": {
                        "value": [
                            "Toyota Van"
                        ]
                    },
                    "category": {
                        "value": "light"
                    }
                }
            }
        ]
    },
    {
        "slug": "hyundai-van",
        "cardetails": [
            {
                "title": "هیوندای ون هیوندای",
                "filter": {
                    "query": "هیوندای ون هیوندای",
                    "brand_model": {
                        "value": [
                            "Hyundai Van"
                        ]
                    },
                    "category": {
                        "value": "light"
                    }
                },
                "filters": {
                    "query": "هیوندای ون هیوندای",
                    "brand_model": {
                        "value": [
                            "Hyundai Van"
                        ]
                    },
                    "category": {
                        "value": "light"
                    }
                }
            }
        ],
        "mechanic": [
            {
                "title": "ون هیوندای",
                "filters": {
                    "query": "ون هیوندای",
                    "brand_model": {
                        "value": [
                            "Hyundai Van"
                        ]
                    },
                    "category": {
                        "value": "light"
                    }
                },
                "filter": {
                    "query": "ون هیوندای",
                    "brand_model": {
                        "value": [
                            "Hyundai Van"
                        ]
                    },
                    "category": {
                        "value": "light"
                    }
                }
            }
        ]
    },
    {
        "slug": "mercedes-benz-van",
        "cardetails": [
            {
                "title": "بنز ون بنز",
                "filter": {
                    "query": "بنز ون بنز",
                    "brand_model": {
                        "value": [
                            "Mercedes-Benz Van"
                        ]
                    },
                    "category": {
                        "value": "light"
                    }
                },
                "filters": {
                    "query": "بنز ون بنز",
                    "brand_model": {
                        "value": [
                            "Mercedes-Benz Van"
                        ]
                    },
                    "category": {
                        "value": "light"
                    }
                }
            }
        ],
        "mechanic": [
            {
                "title": "ون بنز",
                "filters": {
                    "query": "ون بنز",
                    "brand_model": {
                        "value": [
                            "Mercedes-Benz Van"
                        ]
                    },
                    "category": {
                        "value": "light"
                    }
                },
                "filter": {
                    "query": "ون بنز",
                    "brand_model": {
                        "value": [
                            "Mercedes-Benz Van"
                        ]
                    },
                    "category": {
                        "value": "light"
                    }
                }
            }
        ]
    },
    {
        "slug": "mercedes-benz-van-mb140",
        "cardetails": [
            {
                "title": "بنز ون بنز MB140",
                "filter": {
                    "query": "بنز ون بنز MB140",
                    "brand_model": {
                        "value": [
                            "Mercedes-Benz Van MB140"
                        ]
                    },
                    "category": {
                        "value": "light"
                    }
                },
                "filters": {
                    "query": "بنز ون بنز MB140",
                    "brand_model": {
                        "value": [
                            "Mercedes-Benz Van MB140"
                        ]
                    },
                    "category": {
                        "value": "light"
                    }
                }
            }
        ],
        "mechanic": [
            {
                "title": "ون بنز MB140",
                "filters": {
                    "query": "ون بنز MB140",
                    "brand_model": {
                        "value": [
                            "Mercedes-Benz Van MB140"
                        ]
                    },
                    "category": {
                        "value": "light"
                    }
                },
                "filter": {
                    "query": "ون بنز MB140",
                    "brand_model": {
                        "value": [
                            "Mercedes-Benz Van MB140"
                        ]
                    },
                    "category": {
                        "value": "light"
                    }
                }
            }
        ]
    },
    {
        "slug": "arisan-arisan",
        "cardetails": [
            {
                "title": "آریسان وانت آریسان",
                "filter": {
                    "query": "آریسان وانت آریسان",
                    "brand_model": {
                        "value": [
                            "Arisan Arisan"
                        ]
                    },
                    "category": {
                        "value": "light"
                    }
                },
                "filters": {
                    "query": "آریسان وانت آریسان",
                    "brand_model": {
                        "value": [
                            "Arisan Arisan"
                        ]
                    },
                    "category": {
                        "value": "light"
                    }
                }
            }
        ],
        "mechanic": [
            {
                "title": "وانت آریسان",
                "filters": {
                    "query": "وانت آریسان",
                    "brand_model": {
                        "value": [
                            "Arisan Arisan"
                        ]
                    },
                    "category": {
                        "value": "light"
                    }
                },
                "filter": {
                    "query": "وانت آریسان",
                    "brand_model": {
                        "value": [
                            "Arisan Arisan"
                        ]
                    },
                    "category": {
                        "value": "light"
                    }
                }
            }
        ]
    },
    {
        "slug": "toyota-van-hiace",
        "cardetails": [
            {
                "title": "تویوتا ون تویوتا هایس",
                "filter": {
                    "query": "تویوتا ون تویوتا هایس",
                    "brand_model": {
                        "value": [
                            "Toyota Van Hiace"
                        ]
                    },
                    "category": {
                        "value": "light"
                    }
                },
                "filters": {
                    "query": "تویوتا ون تویوتا هایس",
                    "brand_model": {
                        "value": [
                            "Toyota Van Hiace"
                        ]
                    },
                    "category": {
                        "value": "light"
                    }
                }
            }
        ],
        "mechanic": [
            {
                "title": "ون تویوتا هایس",
                "filters": {
                    "query": "ون تویوتا هایس",
                    "brand_model": {
                        "value": [
                            "Toyota Van Hiace"
                        ]
                    },
                    "category": {
                        "value": "light"
                    }
                },
                "filter": {
                    "query": "ون تویوتا هایس",
                    "brand_model": {
                        "value": [
                            "Toyota Van Hiace"
                        ]
                    },
                    "category": {
                        "value": "light"
                    }
                }
            }
        ]
    },
    {
        "slug": "toyota-van-previa",
        "cardetails": [
            {
                "title": "تویوتا ون تویوتا پرویا",
                "filter": {
                    "query": "تویوتا ون تویوتا پرویا",
                    "brand_model": {
                        "value": [
                            "Toyota Van Previa"
                        ]
                    },
                    "category": {
                        "value": "light"
                    }
                },
                "filters": {
                    "query": "تویوتا ون تویوتا پرویا",
                    "brand_model": {
                        "value": [
                            "Toyota Van Previa"
                        ]
                    },
                    "category": {
                        "value": "light"
                    }
                }
            }
        ],
        "mechanic": [
            {
                "title": "ون تویوتا پرویا",
                "filters": {
                    "query": "ون تویوتا پرویا",
                    "brand_model": {
                        "value": [
                            "Toyota Van Previa"
                        ]
                    },
                    "category": {
                        "value": "light"
                    }
                },
                "filter": {
                    "query": "ون تویوتا پرویا",
                    "brand_model": {
                        "value": [
                            "Toyota Van Previa"
                        ]
                    },
                    "category": {
                        "value": "light"
                    }
                }
            }
        ]
    },
    {
        "slug": "nissan-pickup",
        "cardetails": [
            {
                "title": "نیسان وانت نیسان",
                "filter": {
                    "query": "نیسان وانت نیسان",
                    "brand_model": {
                        "value": [
                            "Nissan Pickup"
                        ]
                    },
                    "category": {
                        "value": "light"
                    }
                },
                "filters": {
                    "query": "نیسان وانت نیسان",
                    "brand_model": {
                        "value": [
                            "Nissan Pickup"
                        ]
                    },
                    "category": {
                        "value": "light"
                    }
                }
            }
        ],
        "mechanic": [
            {
                "title": "وانت نیسان",
                "filters": {
                    "query": "وانت نیسان",
                    "brand_model": {
                        "value": [
                            "Nissan Pickup"
                        ]
                    },
                    "category": {
                        "value": "light"
                    }
                },
                "filter": {
                    "query": "وانت نیسان",
                    "brand_model": {
                        "value": [
                            "Nissan Pickup"
                        ]
                    },
                    "category": {
                        "value": "light"
                    }
                }
            }
        ]
    },
    {
        "slug": "foton-van",
        "cardetails": [
            {
                "title": "فوتون ون فوتون",
                "filter": {
                    "query": "فوتون ون فوتون",
                    "brand_model": {
                        "value": [
                            "Foton Van"
                        ]
                    },
                    "category": {
                        "value": "light"
                    }
                },
                "filters": {
                    "query": "فوتون ون فوتون",
                    "brand_model": {
                        "value": [
                            "Foton Van"
                        ]
                    },
                    "category": {
                        "value": "light"
                    }
                }
            }
        ],
        "mechanic": [
            {
                "title": "ون فوتون",
                "filters": {
                    "query": "ون فوتون",
                    "brand_model": {
                        "value": [
                            "Foton Van"
                        ]
                    },
                    "category": {
                        "value": "light"
                    }
                },
                "filter": {
                    "query": "ون فوتون",
                    "brand_model": {
                        "value": [
                            "Foton Van"
                        ]
                    },
                    "category": {
                        "value": "light"
                    }
                }
            }
        ]
    },
    {
        "slug": "irankhodro-van-ghazal",
        "cardetails": [
            {
                "title": "ون ایران خودرو غزال‌",
                "filter": {
                    "query": "ون ایران خودرو غزال‌",
                    "brand_model": {
                        "value": [
                            "IranKhodro Van Ghazal"
                        ]
                    },
                    "category": {
                        "value": "light"
                    }
                },
                "filters": {
                    "query": "ون ایران خودرو غزال‌",
                    "brand_model": {
                        "value": [
                            "IranKhodro Van Ghazal"
                        ]
                    },
                    "category": {
                        "value": "light"
                    }
                }
            }
        ],
        "mechanic": [
            {
                "title": "ون ایران خودروغزال‌",
                "filters": {
                    "query": "ون ایران خودروغزال‌",
                    "brand_model": {
                        "value": [
                            "IranKhodro Van Ghazal"
                        ]
                    },
                    "category": {
                        "value": "light"
                    }
                },
                "filter": {
                    "query": "ون ایران خودروغزال‌",
                    "brand_model": {
                        "value": [
                            "IranKhodro Van Ghazal"
                        ]
                    },
                    "category": {
                        "value": "light"
                    }
                }
            }
        ]
    },
    {
        "slug": "delica-van",
        "cardetails": [
            {
                "title": "دلیکا ون دلیکا",
                "filter": {
                    "query": "دلیکا ون دلیکا",
                    "brand_model": {
                        "value": [
                            "Delica Van"
                        ]
                    },
                    "category": {
                        "value": "light"
                    }
                },
                "filters": {
                    "query": "دلیکا ون دلیکا",
                    "brand_model": {
                        "value": [
                            "Delica Van"
                        ]
                    },
                    "category": {
                        "value": "light"
                    }
                }
            }
        ],
        "mechanic": [
            {
                "title": "ون دلیکا",
                "filters": {
                    "query": "ون دلیکا",
                    "brand_model": {
                        "value": [
                            "Delica Van"
                        ]
                    },
                    "category": {
                        "value": "light"
                    }
                },
                "filter": {
                    "query": "ون دلیکا",
                    "brand_model": {
                        "value": [
                            "Delica Van"
                        ]
                    },
                    "category": {
                        "value": "light"
                    }
                }
            }
        ]
    },
    {
        "slug": "rich-rich",
        "cardetails": [
            {
                "title": "ریچ پیکاپ ریچ دوکابین",
                "filter": {
                    "query": "ریچ پیکاپ ریچ دوکابین",
                    "brand_model": {
                        "value": [
                            "Rich Rich"
                        ]
                    },
                    "category": {
                        "value": "light"
                    }
                },
                "filters": {
                    "query": "ریچ پیکاپ ریچ دوکابین",
                    "brand_model": {
                        "value": [
                            "Rich Rich"
                        ]
                    },
                    "category": {
                        "value": "light"
                    }
                }
            }
        ],
        "mechanic": [
            {
                "title": "پیکاپ ریچ دوکابین",
                "filters": {
                    "query": "پیکاپ ریچ دوکابین",
                    "brand_model": {
                        "value": [
                            "Rich Rich"
                        ]
                    },
                    "category": {
                        "value": "light"
                    }
                },
                "filter": {
                    "query": "پیکاپ ریچ دوکابین",
                    "brand_model": {
                        "value": [
                            "Rich Rich"
                        ]
                    },
                    "category": {
                        "value": "light"
                    }
                }
            }
        ]
    },
    {
        "slug": "toyota-pickup-land-cruiser-pickup-double-cabin-3f",
        "cardetails": [
            {
                "title": "تویوتا وانت لندکروزر دو کابین 3F",
                "filter": {
                    "query": "تویوتا وانت لندکروزر دو کابین 3F",
                    "brand_model": {
                        "value": [
                            "Toyota Pickup Land Cruiser-Pickup-Double cabin 3F"
                        ]
                    },
                    "category": {
                        "value": "light"
                    }
                },
                "filters": {
                    "query": "تویوتا وانت لندکروزر دو کابین 3F",
                    "brand_model": {
                        "value": [
                            "Toyota Pickup Land Cruiser-Pickup-Double cabin 3F"
                        ]
                    },
                    "category": {
                        "value": "light"
                    }
                }
            }
        ],
        "mechanic": [
            {
                "title": "وانت لندکروزر دو کابین 3F",
                "filters": {
                    "query": "وانت لندکروزر دو کابین 3F",
                    "brand_model": {
                        "value": [
                            "Toyota Pickup Land Cruiser-Pickup-Double cabin 3F"
                        ]
                    },
                    "category": {
                        "value": "light"
                    }
                },
                "filter": {
                    "query": "وانت لندکروزر دو کابین 3F",
                    "brand_model": {
                        "value": [
                            "Toyota Pickup Land Cruiser-Pickup-Double cabin 3F"
                        ]
                    },
                    "category": {
                        "value": "light"
                    }
                }
            }
        ]
    },
    {
        "slug": "nissan-pickup-double-cabin-bi-fuel",
        "cardetails": [
            {
                "title": "نیسان وانت نیسان نیسان پیکاپ‌ دو کابین دوگانه‌ سوز",
                "filter": {
                    "query": "نیسان وانت نیسان نیسان پیکاپ‌ دو کابین دوگانه‌ سوز",
                    "brand_model": {
                        "value": [
                            "Nissan Pickup double-cabin Bi-fuel"
                        ]
                    },
                    "category": {
                        "value": "light"
                    }
                },
                "filters": {
                    "query": "نیسان وانت نیسان نیسان پیکاپ‌ دو کابین دوگانه‌ سوز",
                    "brand_model": {
                        "value": [
                            "Nissan Pickup double-cabin Bi-fuel"
                        ]
                    },
                    "category": {
                        "value": "light"
                    }
                }
            }
        ],
        "mechanic": [
            {
                "title": "نیسان پیکاپ‌ دو کابین دوگانه‌ سوز",
                "filters": {
                    "query": "نیسان پیکاپ‌ دو کابین دوگانه‌ سوز",
                    "brand_model": {
                        "value": [
                            "Nissan Pickup double-cabin Bi-fuel"
                        ]
                    },
                    "category": {
                        "value": "light"
                    }
                },
                "filter": {
                    "query": "نیسان پیکاپ‌ دو کابین دوگانه‌ سوز",
                    "brand_model": {
                        "value": [
                            "Nissan Pickup double-cabin Bi-fuel"
                        ]
                    },
                    "category": {
                        "value": "light"
                    }
                }
            }
        ]
    },
    {
        "slug": "mazda-pickup-injector-2000-single-cabin-bi-fuel",
        "cardetails": [
            {
                "title": "مزدا وانت مزدا 2000 تک کابین دوگانه‌ سوز",
                "filter": {
                    "query": "مزدا وانت مزدا 2000 تک کابین دوگانه‌ سوز",
                    "brand_model": {
                        "value": [
                            "Mazda Pickup injector 2000-single cabin Bi-fuel"
                        ]
                    },
                    "category": {
                        "value": "light"
                    }
                },
                "filters": {
                    "query": "مزدا وانت مزدا 2000 تک کابین دوگانه‌ سوز",
                    "brand_model": {
                        "value": [
                            "Mazda Pickup injector 2000-single cabin Bi-fuel"
                        ]
                    },
                    "category": {
                        "value": "light"
                    }
                }
            }
        ],
        "mechanic": [
            {
                "title": "وانت مزدا 2000 تک کابین دوگانه‌ سوز",
                "filters": {
                    "query": "وانت مزدا 2000 تک کابین دوگانه‌ سوز",
                    "brand_model": {
                        "value": [
                            "Mazda Pickup injector 2000-single cabin Bi-fuel"
                        ]
                    },
                    "category": {
                        "value": "light"
                    }
                },
                "filter": {
                    "query": "وانت مزدا 2000 تک کابین دوگانه‌ سوز",
                    "brand_model": {
                        "value": [
                            "Mazda Pickup injector 2000-single cabin Bi-fuel"
                        ]
                    },
                    "category": {
                        "value": "light"
                    }
                }
            }
        ]
    },
    {
        "slug": "renault-pickup-tondar-90",
        "cardetails": [
            {
                "title": "رنو وانت رنو تندر 90",
                "filter": {
                    "query": "رنو وانت رنو تندر 90",
                    "brand_model": {
                        "value": [
                            "Renault Pickup Tondar 90"
                        ]
                    },
                    "category": {
                        "value": "light"
                    }
                },
                "filters": {
                    "query": "رنو وانت رنو تندر 90",
                    "brand_model": {
                        "value": [
                            "Renault Pickup Tondar 90"
                        ]
                    },
                    "category": {
                        "value": "light"
                    }
                }
            }
        ],
        "mechanic": [
            {
                "title": "وانت رنو تندر 90",
                "filters": {
                    "query": "وانت رنو تندر 90",
                    "brand_model": {
                        "value": [
                            "Renault Pickup Tondar 90"
                        ]
                    },
                    "category": {
                        "value": "light"
                    }
                },
                "filter": {
                    "query": "وانت رنو تندر 90",
                    "brand_model": {
                        "value": [
                            "Renault Pickup Tondar 90"
                        ]
                    },
                    "category": {
                        "value": "light"
                    }
                }
            }
        ]
    },
    {
        "slug": "mercedes-benz-van-vito",
        "cardetails": [
            {
                "title": "بنز ون بنز ویتو",
                "filter": {
                    "query": "بنز ون بنز ویتو",
                    "brand_model": {
                        "value": [
                            "Mercedes-Benz Van Vito"
                        ]
                    },
                    "category": {
                        "value": "light"
                    }
                },
                "filters": {
                    "query": "بنز ون بنز ویتو",
                    "brand_model": {
                        "value": [
                            "Mercedes-Benz Van Vito"
                        ]
                    },
                    "category": {
                        "value": "light"
                    }
                }
            }
        ],
        "mechanic": [
            {
                "title": "ون بنز ویتو",
                "filters": {
                    "query": "ون بنز ویتو",
                    "brand_model": {
                        "value": [
                            "Mercedes-Benz Van Vito"
                        ]
                    },
                    "category": {
                        "value": "light"
                    }
                },
                "filter": {
                    "query": "ون بنز ویتو",
                    "brand_model": {
                        "value": [
                            "Mercedes-Benz Van Vito"
                        ]
                    },
                    "category": {
                        "value": "light"
                    }
                }
            }
        ]
    },
    {
        "slug": "toyota-landcruiser-4door-4700cc",
        "cardetails": [
            {
                "title": "تویوتا لندکروزر‌ ۴در 4700cc",
                "filter": {
                    "query": "تویوتا لندکروزر‌ ۴در 4700cc",
                    "brand_model": {
                        "value": [
                            "Toyota Landcruiser 4door 4700cc"
                        ]
                    },
                    "category": {
                        "value": "light"
                    }
                },
                "filters": {
                    "query": "تویوتا لندکروزر‌ ۴در 4700cc",
                    "brand_model": {
                        "value": [
                            "Toyota Landcruiser 4door 4700cc"
                        ]
                    },
                    "category": {
                        "value": "light"
                    }
                }
            }
        ],
        "mechanic": [
            {
                "title": "تویوتا لندکروزر ۴در 4700cc",
                "filters": {
                    "query": "تویوتا لندکروزر ۴در 4700cc",
                    "brand_model": {
                        "value": [
                            "Toyota Landcruiser 4door 4700cc"
                        ]
                    },
                    "category": {
                        "value": "light"
                    }
                },
                "filter": {
                    "query": "تویوتا لندکروزر ۴در 4700cc",
                    "brand_model": {
                        "value": [
                            "Toyota Landcruiser 4door 4700cc"
                        ]
                    },
                    "category": {
                        "value": "light"
                    }
                }
            }
        ]
    },
    {
        "slug": "toyota-landcruiser-4door-4500cc",
        "cardetails": [
            {
                "title": "تویوتا لندکروزر‌ ۴در 4500cc",
                "filter": {
                    "query": "تویوتا لندکروزر‌ ۴در 4500cc",
                    "brand_model": {
                        "value": [
                            "Toyota Landcruiser 4door 4500cc"
                        ]
                    },
                    "category": {
                        "value": "light"
                    }
                },
                "filters": {
                    "query": "تویوتا لندکروزر‌ ۴در 4500cc",
                    "brand_model": {
                        "value": [
                            "Toyota Landcruiser 4door 4500cc"
                        ]
                    },
                    "category": {
                        "value": "light"
                    }
                }
            }
        ],
        "mechanic": [
            {
                "title": "تویوتا لندکروزر ۴در 4500cc",
                "filters": {
                    "query": "تویوتا لندکروزر ۴در 4500cc",
                    "brand_model": {
                        "value": [
                            "Toyota Landcruiser 4door 4500cc"
                        ]
                    },
                    "category": {
                        "value": "light"
                    }
                },
                "filter": {
                    "query": "تویوتا لندکروزر ۴در 4500cc",
                    "brand_model": {
                        "value": [
                            "Toyota Landcruiser 4door 4500cc"
                        ]
                    },
                    "category": {
                        "value": "light"
                    }
                }
            }
        ]
    },
    {
        "slug": "mazda-pickup-injector-2000-double-cabin-bi-fuel",
        "cardetails": [
            {
                "title": "مزدا وانت مزدا 2000 دو کابین دوگانه‌ سوز",
                "filter": {
                    "query": "مزدا وانت مزدا 2000 دو کابین دوگانه‌ سوز",
                    "brand_model": {
                        "value": [
                            "Mazda Pickup injector 2000-double cabin Bi-fuel"
                        ]
                    },
                    "category": {
                        "value": "light"
                    }
                },
                "filters": {
                    "query": "مزدا وانت مزدا 2000 دو کابین دوگانه‌ سوز",
                    "brand_model": {
                        "value": [
                            "Mazda Pickup injector 2000-double cabin Bi-fuel"
                        ]
                    },
                    "category": {
                        "value": "light"
                    }
                }
            }
        ],
        "mechanic": [
            {
                "title": "وانت مزدا 2000 دو کابین دوگانه‌ سوز",
                "filters": {
                    "query": "وانت مزدا 2000 دو کابین دوگانه‌ سوز",
                    "brand_model": {
                        "value": [
                            "Mazda Pickup injector 2000-double cabin Bi-fuel"
                        ]
                    },
                    "category": {
                        "value": "light"
                    }
                },
                "filter": {
                    "query": "وانت مزدا 2000 دو کابین دوگانه‌ سوز",
                    "brand_model": {
                        "value": [
                            "Mazda Pickup injector 2000-double cabin Bi-fuel"
                        ]
                    },
                    "category": {
                        "value": "light"
                    }
                }
            }
        ]
    },
    {
        "slug": "nissan-pickup-single-cabin",
        "cardetails": [
            {
                "title": "نیسان وانت نیسان پیکاپ تک کابین",
                "filter": {
                    "query": "نیسان وانت نیسان پیکاپ تک کابین",
                    "brand_model": {
                        "value": [
                            "Nissan Pickup single-cabin"
                        ]
                    },
                    "category": {
                        "value": "light"
                    }
                },
                "filters": {
                    "query": "نیسان وانت نیسان پیکاپ تک کابین",
                    "brand_model": {
                        "value": [
                            "Nissan Pickup single-cabin"
                        ]
                    },
                    "category": {
                        "value": "light"
                    }
                }
            }
        ],
        "mechanic": [
            {
                "title": "وانت نیسان پیکاپ تک کابین",
                "filters": {
                    "query": "وانت نیسان پیکاپ تک کابین",
                    "brand_model": {
                        "value": [
                            "Nissan Pickup single-cabin"
                        ]
                    },
                    "category": {
                        "value": "light"
                    }
                },
                "filter": {
                    "query": "وانت نیسان پیکاپ تک کابین",
                    "brand_model": {
                        "value": [
                            "Nissan Pickup single-cabin"
                        ]
                    },
                    "category": {
                        "value": "light"
                    }
                }
            }
        ]
    },
    {
        "slug": "mazda-pickup-cara-double-cabin-1700cc",
        "cardetails": [
            {
                "title": "مزدا وانت مزدا کارا دو کابین 1700cc",
                "filter": {
                    "query": "مزدا وانت مزدا کارا دو کابین 1700cc",
                    "brand_model": {
                        "value": [
                            "Mazda Pickup Cara-double cabin 1700cc"
                        ]
                    },
                    "category": {
                        "value": "light"
                    }
                },
                "filters": {
                    "query": "مزدا وانت مزدا کارا دو کابین 1700cc",
                    "brand_model": {
                        "value": [
                            "Mazda Pickup Cara-double cabin 1700cc"
                        ]
                    },
                    "category": {
                        "value": "light"
                    }
                }
            }
        ],
        "mechanic": [
            {
                "title": "وانت مزدا کارا دو کابین 1700cc",
                "filters": {
                    "query": "وانت مزدا کارا دو کابین 1700cc",
                    "brand_model": {
                        "value": [
                            "Mazda Pickup Cara-double cabin 1700cc"
                        ]
                    },
                    "category": {
                        "value": "light"
                    }
                },
                "filter": {
                    "query": "وانت مزدا کارا دو کابین 1700cc",
                    "brand_model": {
                        "value": [
                            "Mazda Pickup Cara-double cabin 1700cc"
                        ]
                    },
                    "category": {
                        "value": "light"
                    }
                }
            }
        ]
    },
    {
        "slug": "mazda-pickup-cara-single-cabin-2000cc",
        "cardetails": [
            {
                "title": "مزدا وانت مزدا کارا تک کابین 2000cc",
                "filter": {
                    "query": "مزدا وانت مزدا کارا تک کابین 2000cc",
                    "brand_model": {
                        "value": [
                            "Mazda Pickup Cara-single cabin 2000cc"
                        ]
                    },
                    "category": {
                        "value": "light"
                    }
                },
                "filters": {
                    "query": "مزدا وانت مزدا کارا تک کابین 2000cc",
                    "brand_model": {
                        "value": [
                            "Mazda Pickup Cara-single cabin 2000cc"
                        ]
                    },
                    "category": {
                        "value": "light"
                    }
                }
            }
        ],
        "mechanic": [
            {
                "title": "وانت مزدا کارا تک کابین 2000cc",
                "filters": {
                    "query": "وانت مزدا کارا تک کابین 2000cc",
                    "brand_model": {
                        "value": [
                            "Mazda Pickup Cara-single cabin 2000cc"
                        ]
                    },
                    "category": {
                        "value": "light"
                    }
                },
                "filter": {
                    "query": "وانت مزدا کارا تک کابین 2000cc",
                    "brand_model": {
                        "value": [
                            "Mazda Pickup Cara-single cabin 2000cc"
                        ]
                    },
                    "category": {
                        "value": "light"
                    }
                }
            }
        ]
    },
    {
        "slug": "foton-pickup-tunland-diesel-doubledifferential",
        "cardetails": [
            {
                "title": "فوتون وانت فوتون تونلند دو دیفرانسیل دیزلی",
                "filter": {
                    "query": "فوتون وانت فوتون تونلند دو دیفرانسیل دیزلی",
                    "brand_model": {
                        "value": [
                            "Foton Pickup Tunland diesel doubledifferential"
                        ]
                    },
                    "category": {
                        "value": "light"
                    }
                },
                "filters": {
                    "query": "فوتون وانت فوتون تونلند دو دیفرانسیل دیزلی",
                    "brand_model": {
                        "value": [
                            "Foton Pickup Tunland diesel doubledifferential"
                        ]
                    },
                    "category": {
                        "value": "light"
                    }
                }
            }
        ],
        "mechanic": [
            {
                "title": "وانت فوتون تونلند دو دیفرانسیل دیزلی",
                "filters": {
                    "query": "وانت فوتون تونلند دو دیفرانسیل دیزلی",
                    "brand_model": {
                        "value": [
                            "Foton Pickup Tunland diesel doubledifferential"
                        ]
                    },
                    "category": {
                        "value": "light"
                    }
                },
                "filter": {
                    "query": "وانت فوتون تونلند دو دیفرانسیل دیزلی",
                    "brand_model": {
                        "value": [
                            "Foton Pickup Tunland diesel doubledifferential"
                        ]
                    },
                    "category": {
                        "value": "light"
                    }
                }
            }
        ]
    },
    {
        "slug": "arisan-arisan-petrol",
        "cardetails": [
            {
                "title": "آریسان وانت آریسان بنزینی",
                "filter": {
                    "query": "آریسان وانت آریسان بنزینی",
                    "brand_model": {
                        "value": [
                            "Arisan Arisan petrol"
                        ]
                    },
                    "category": {
                        "value": "light"
                    }
                },
                "filters": {
                    "query": "آریسان وانت آریسان بنزینی",
                    "brand_model": {
                        "value": [
                            "Arisan Arisan petrol"
                        ]
                    },
                    "category": {
                        "value": "light"
                    }
                }
            }
        ],
        "mechanic": [
            {
                "title": "وانت آریسان بنزینی",
                "filters": {
                    "query": "وانت آریسان بنزینی",
                    "brand_model": {
                        "value": [
                            "Arisan Arisan petrol"
                        ]
                    },
                    "category": {
                        "value": "light"
                    }
                },
                "filter": {
                    "query": "وانت آریسان بنزینی",
                    "brand_model": {
                        "value": [
                            "Arisan Arisan petrol"
                        ]
                    },
                    "category": {
                        "value": "light"
                    }
                }
            }
        ]
    },
    {
        "slug": "arisan-arisan-bi-fuel",
        "cardetails": [
            {
                "title": "آریسان وانت آریسان دوگانه‌ سوز",
                "filter": {
                    "query": "آریسان وانت آریسان دوگانه‌ سوز",
                    "brand_model": {
                        "value": [
                            "Arisan Arisan Bi-fuel"
                        ]
                    },
                    "category": {
                        "value": "light"
                    }
                },
                "filters": {
                    "query": "آریسان وانت آریسان دوگانه‌ سوز",
                    "brand_model": {
                        "value": [
                            "Arisan Arisan Bi-fuel"
                        ]
                    },
                    "category": {
                        "value": "light"
                    }
                }
            }
        ],
        "mechanic": [
            {
                "title": "وانت آریسان دوگانه‌ سوز",
                "filters": {
                    "query": "وانت آریسان دوگانه‌ سوز",
                    "brand_model": {
                        "value": [
                            "Arisan Arisan Bi-fuel"
                        ]
                    },
                    "category": {
                        "value": "light"
                    }
                },
                "filter": {
                    "query": "وانت آریسان دوگانه‌ سوز",
                    "brand_model": {
                        "value": [
                            "Arisan Arisan Bi-fuel"
                        ]
                    },
                    "category": {
                        "value": "light"
                    }
                }
            }
        ]
    },
    {
        "slug": "foton-pickup-tunland-petrol-doubledifferential",
        "cardetails": [
            {
                "title": "فوتون وانت فوتون تونلند دو دیفرانسیل بنزینی",
                "filter": {
                    "query": "فوتون وانت فوتون تونلند دو دیفرانسیل بنزینی",
                    "brand_model": {
                        "value": [
                            "Foton Pickup Tunland Petrol doubledifferential"
                        ]
                    },
                    "category": {
                        "value": "light"
                    }
                },
                "filters": {
                    "query": "فوتون وانت فوتون تونلند دو دیفرانسیل بنزینی",
                    "brand_model": {
                        "value": [
                            "Foton Pickup Tunland Petrol doubledifferential"
                        ]
                    },
                    "category": {
                        "value": "light"
                    }
                }
            }
        ],
        "mechanic": [
            {
                "title": "وانت فوتون تونلند دو دیفرانسیل بنزینی",
                "filters": {
                    "query": "وانت فوتون تونلند دو دیفرانسیل بنزینی",
                    "brand_model": {
                        "value": [
                            "Foton Pickup Tunland Petrol doubledifferential"
                        ]
                    },
                    "category": {
                        "value": "light"
                    }
                },
                "filter": {
                    "query": "وانت فوتون تونلند دو دیفرانسیل بنزینی",
                    "brand_model": {
                        "value": [
                            "Foton Pickup Tunland Petrol doubledifferential"
                        ]
                    },
                    "category": {
                        "value": "light"
                    }
                }
            }
        ]
    },
    {
        "slug": "mazda-pickup-cara-single-cabin-1700cc",
        "cardetails": [
            {
                "title": "مزدا وانت مزدا کارا تک کابین 1700cc",
                "filter": {
                    "query": "مزدا وانت مزدا کارا تک کابین 1700cc",
                    "brand_model": {
                        "value": [
                            "Mazda Pickup Cara-single cabin 1700cc"
                        ]
                    },
                    "category": {
                        "value": "light"
                    }
                },
                "filters": {
                    "query": "مزدا وانت مزدا کارا تک کابین 1700cc",
                    "brand_model": {
                        "value": [
                            "Mazda Pickup Cara-single cabin 1700cc"
                        ]
                    },
                    "category": {
                        "value": "light"
                    }
                }
            }
        ],
        "mechanic": [
            {
                "title": "وانت مزدا کارا تک کابین 1700cc",
                "filters": {
                    "query": "وانت مزدا کارا تک کابین 1700cc",
                    "brand_model": {
                        "value": [
                            "Mazda Pickup Cara-single cabin 1700cc"
                        ]
                    },
                    "category": {
                        "value": "light"
                    }
                },
                "filter": {
                    "query": "وانت مزدا کارا تک کابین 1700cc",
                    "brand_model": {
                        "value": [
                            "Mazda Pickup Cara-single cabin 1700cc"
                        ]
                    },
                    "category": {
                        "value": "light"
                    }
                }
            }
        ]
    },
    {
        "slug": "toyota-pickup-land-cruiser-pickup-single-cabin-2f",
        "cardetails": [
            {
                "title": "تویوتا وانت لندکروزر تک کابین 2F",
                "filter": {
                    "query": "تویوتا وانت لندکروزر تک کابین 2F",
                    "brand_model": {
                        "value": [
                            "Toyota Pickup Land Cruiser-Pickup-single cabin 2F"
                        ]
                    },
                    "category": {
                        "value": "light"
                    }
                },
                "filters": {
                    "query": "تویوتا وانت لندکروزر تک کابین 2F",
                    "brand_model": {
                        "value": [
                            "Toyota Pickup Land Cruiser-Pickup-single cabin 2F"
                        ]
                    },
                    "category": {
                        "value": "light"
                    }
                }
            }
        ],
        "mechanic": [
            {
                "title": "وانت لندکروزر تک کابین 2F",
                "filters": {
                    "query": "وانت لندکروزر تک کابین 2F",
                    "brand_model": {
                        "value": [
                            "Toyota Pickup Land Cruiser-Pickup-single cabin 2F"
                        ]
                    },
                    "category": {
                        "value": "light"
                    }
                },
                "filter": {
                    "query": "وانت لندکروزر تک کابین 2F",
                    "brand_model": {
                        "value": [
                            "Toyota Pickup Land Cruiser-Pickup-single cabin 2F"
                        ]
                    },
                    "category": {
                        "value": "light"
                    }
                }
            }
        ]
    },
    {
        "slug": "toyota-pickup-land-cruiser-pickup-single-cabin-3f",
        "cardetails": [
            {
                "title": "تویوتا وانت لندکروزر تک کابین 3F",
                "filter": {
                    "query": "تویوتا وانت لندکروزر تک کابین 3F",
                    "brand_model": {
                        "value": [
                            "Toyota Pickup Land Cruiser-Pickup-single cabin 3F"
                        ]
                    },
                    "category": {
                        "value": "light"
                    }
                },
                "filters": {
                    "query": "تویوتا وانت لندکروزر تک کابین 3F",
                    "brand_model": {
                        "value": [
                            "Toyota Pickup Land Cruiser-Pickup-single cabin 3F"
                        ]
                    },
                    "category": {
                        "value": "light"
                    }
                }
            }
        ],
        "mechanic": [
            {
                "title": "وانت لندکروزر تک کابین 3F",
                "filters": {
                    "query": "وانت لندکروزر تک کابین 3F",
                    "brand_model": {
                        "value": [
                            "Toyota Pickup Land Cruiser-Pickup-single cabin 3F"
                        ]
                    },
                    "category": {
                        "value": "light"
                    }
                },
                "filter": {
                    "query": "وانت لندکروزر تک کابین 3F",
                    "brand_model": {
                        "value": [
                            "Toyota Pickup Land Cruiser-Pickup-single cabin 3F"
                        ]
                    },
                    "category": {
                        "value": "light"
                    }
                }
            }
        ]
    },
    {
        "slug": "volkswagen-van-transporter",
        "cardetails": [
            {
                "title": "فولکس ون فولکس ترنسپورتر",
                "filter": {
                    "query": "فولکس ون فولکس ترنسپورتر",
                    "brand_model": {
                        "value": [
                            "Volkswagen Van Transporter"
                        ]
                    },
                    "category": {
                        "value": "light"
                    }
                },
                "filters": {
                    "query": "فولکس ون فولکس ترنسپورتر",
                    "brand_model": {
                        "value": [
                            "Volkswagen Van Transporter"
                        ]
                    },
                    "category": {
                        "value": "light"
                    }
                }
            }
        ],
        "mechanic": [
            {
                "title": "ون فولکس ترنسپورتر",
                "filters": {
                    "query": "ون فولکس ترنسپورتر",
                    "brand_model": {
                        "value": [
                            "Volkswagen Van Transporter"
                        ]
                    },
                    "category": {
                        "value": "light"
                    }
                },
                "filter": {
                    "query": "ون فولکس ترنسپورتر",
                    "brand_model": {
                        "value": [
                            "Volkswagen Van Transporter"
                        ]
                    },
                    "category": {
                        "value": "light"
                    }
                }
            }
        ]
    },
    {
        "slug": "mazda-pickup-cara-double-cabin-2000cc",
        "cardetails": [
            {
                "title": "مزدا وانت مزدا کارا دو کابین 2000cc",
                "filter": {
                    "query": "مزدا وانت مزدا کارا دو کابین 2000cc",
                    "brand_model": {
                        "value": [
                            "Mazda Pickup Cara-double cabin 2000cc"
                        ]
                    },
                    "category": {
                        "value": "light"
                    }
                },
                "filters": {
                    "query": "مزدا وانت مزدا کارا دو کابین 2000cc",
                    "brand_model": {
                        "value": [
                            "Mazda Pickup Cara-double cabin 2000cc"
                        ]
                    },
                    "category": {
                        "value": "light"
                    }
                }
            }
        ],
        "mechanic": [
            {
                "title": "وانت مزدا کارا دو کابین 2000cc",
                "filters": {
                    "query": "وانت مزدا کارا دو کابین 2000cc",
                    "brand_model": {
                        "value": [
                            "Mazda Pickup Cara-double cabin 2000cc"
                        ]
                    },
                    "category": {
                        "value": "light"
                    }
                },
                "filter": {
                    "query": "وانت مزدا کارا دو کابین 2000cc",
                    "brand_model": {
                        "value": [
                            "Mazda Pickup Cara-double cabin 2000cc"
                        ]
                    },
                    "category": {
                        "value": "light"
                    }
                }
            }
        ]
    }
]