{
    "report_title": "cardetails missing keys",
    "description": 718,
    "images": 674,
    "videos": 1121,
    "links": 1,
    "searches": 1,
    "similar_brands": 1,
    "title": 1,
    "en_title": 1,
    "slug": 1,
    "price_chart": 853,
    "models": 1,
    "parents": 1,
    "options": 192,
    "feedback": 853
}